EESchema Schematic File Version 4
LIBS:ms16-cache
EELAYER 30 0
EELAYER END
$Descr A4 11693 8268
encoding utf-8
Sheet 1 1
Title "Information Board"
Date "2020-01-06"
Rev "0.1"
Comp "Mateusz Urbanek"
Comment1 ""
Comment2 "in the computer via USART should be displayed on the LCD."
Comment3 "Information board - The string of characters specified from the terminal"
Comment4 "Project for Microprocessor Systems (5th semester on Silesian University of Technology)."
$EndDescr
$Comp
L MCU_Microchip_ATmega:ATmega32A-PU U1
U 1 1 5E13582B
P 5800 3300
F 0 "U1" H 5800 3350 50  0000 C CNN
F 1 "ATmega32A-PU" H 5800 3250 50  0000 C CNN
F 2 "Package_DIP:DIP-40_W15.24mm" H 5800 3300 50  0001 C CIN
F 3 "http://ww1.microchip.com/downloads/en/DeviceDoc/atmel-8155-8-bit-microcontroller-avr-atmega32a_datasheet.pdf" H 5800 3300 50  0001 C CNN
	1    5800 3300
	1    0    0    -1  
$EndComp
$Comp
L Connector:AVR-ISP-6 J2
U 1 1 5E13B062
P 8900 4600
F 0 "J2" H 9050 5100 50  0000 R CNN
F 1 "AVR-ISP-6" H 9250 5000 50  0000 R CNN
F 2 "" V 8650 4650 50  0001 C CNN
F 3 " ~" H 7625 4050 50  0001 C CNN
	1    8900 4600
	1    0    0    -1  
$EndComp
$Comp
L Device:Crystal Y1
U 1 1 5E13F353
P 4700 1900
F 0 "Y1" V 4654 2031 50  0000 L CNN
F 1 "Crystal" V 4745 2031 50  0000 L CNN
F 2 "" H 4700 1900 50  0001 C CNN
F 3 "~" H 4700 1900 50  0001 C CNN
	1    4700 1900
	0    1    1    0   
$EndComp
$Comp
L power:GND #PWR?
U 1 1 5E143557
P 8800 5000
F 0 "#PWR?" H 8800 4750 50  0001 C CNN
F 1 "GND" H 8805 4827 50  0000 C CNN
F 2 "" H 8800 5000 50  0001 C CNN
F 3 "" H 8800 5000 50  0001 C CNN
	1    8800 5000
	1    0    0    -1  
$EndComp
$Comp
L power:+5V #PWR?
U 1 1 5E143C4D
P 8800 4100
F 0 "#PWR?" H 8800 3950 50  0001 C CNN
F 1 "+5V" H 8815 4273 50  0000 C CNN
F 2 "" H 8800 4100 50  0001 C CNN
F 3 "" H 8800 4100 50  0001 C CNN
	1    8800 4100
	1    0    0    -1  
$EndComp
Text GLabel 9300 4400 2    50   Input ~ 0
MISO
Text GLabel 9300 4500 2    50   Input ~ 0
MOSI
Text GLabel 9300 4600 2    50   Input ~ 0
SCK
Text GLabel 9300 4700 2    50   Input ~ 0
RESET
Wire Wire Line
	5000 1800 5200 1800
Wire Wire Line
	5000 2000 5200 2000
Text GLabel 5200 1600 0    50   Input ~ 0
RESET
NoConn ~ 5200 2200
Connection ~ 4700 2500
Wire Wire Line
	4700 2550 4700 2500
$Comp
L power:GND #PWR?
U 1 1 5E147A74
P 4700 2550
F 0 "#PWR?" H 4700 2300 50  0001 C CNN
F 1 "GND" H 4705 2377 50  0000 C CNN
F 2 "" H 4700 2550 50  0001 C CNN
F 3 "" H 4700 2550 50  0001 C CNN
	1    4700 2550
	1    0    0    -1  
$EndComp
Wire Wire Line
	4400 2500 4400 2450
Wire Wire Line
	4700 2500 4400 2500
Wire Wire Line
	4700 2450 4700 2500
$Comp
L Device:C C2
U 1 1 5E13E850
P 4700 2300
F 0 "C2" H 4700 2400 50  0000 L CNN
F 1 "22p" H 4700 2200 50  0000 L CNN
F 2 "" H 4738 2150 50  0001 C CNN
F 3 "~" H 4700 2300 50  0001 C CNN
	1    4700 2300
	1    0    0    -1  
$EndComp
$Comp
L Device:C C1
U 1 1 5E13E1AE
P 4400 2300
F 0 "C1" H 4400 2400 50  0000 L CNN
F 1 "22p" H 4400 2200 50  0000 L CNN
F 2 "" H 4438 2150 50  0001 C CNN
F 3 "~" H 4400 2300 50  0001 C CNN
	1    4400 2300
	1    0    0    -1  
$EndComp
Wire Wire Line
	5000 2100 4700 2100
Wire Wire Line
	5000 2000 5000 2100
Wire Wire Line
	4700 2100 4700 2150
Connection ~ 4700 2100
Wire Wire Line
	4700 2050 4700 2100
Wire Wire Line
	4400 2150 4400 1700
Wire Wire Line
	4700 1700 5000 1700
Wire Wire Line
	5000 1700 5000 1800
Wire Wire Line
	4700 1750 4700 1700
Connection ~ 4700 1700
Wire Wire Line
	4400 1700 4700 1700
$Comp
L power:GND #PWR?
U 1 1 5E14DD56
P 5800 5300
F 0 "#PWR?" H 5800 5050 50  0001 C CNN
F 1 "GND" H 5805 5127 50  0000 C CNN
F 2 "" H 5800 5300 50  0001 C CNN
F 3 "" H 5800 5300 50  0001 C CNN
	1    5800 5300
	1    0    0    -1  
$EndComp
$Comp
L power:+5V #PWR?
U 1 1 5E14E75D
P 2200 2550
F 0 "#PWR?" H 2200 2400 50  0001 C CNN
F 1 "+5V" H 2215 2723 50  0000 C CNN
F 2 "" H 2200 2550 50  0001 C CNN
F 3 "" H 2200 2550 50  0001 C CNN
	1    2200 2550
	1    0    0    -1  
$EndComp
$Comp
L power:GND #PWR?
U 1 1 5E14EF25
P 2200 3050
F 0 "#PWR?" H 2200 2800 50  0001 C CNN
F 1 "GND" H 2205 2877 50  0000 C CNN
F 2 "" H 2200 3050 50  0001 C CNN
F 3 "" H 2200 3050 50  0001 C CNN
	1    2200 3050
	1    0    0    -1  
$EndComp
$Comp
L Device:C C2
U 1 1 5E14FA02
P 2200 2800
F 0 "C2" H 2200 2900 50  0000 L CNN
F 1 "0.1u" H 2200 2700 50  0000 L CNN
F 2 "" H 2238 2650 50  0001 C CNN
F 3 "~" H 2200 2800 50  0001 C CNN
	1    2200 2800
	1    0    0    -1  
$EndComp
$Comp
L Device:C C3
U 1 1 5E1505F4
P 2550 2800
F 0 "C3" H 2550 2900 50  0000 L CNN
F 1 "0.1u" H 2550 2700 50  0000 L CNN
F 2 "" H 2588 2650 50  0001 C CNN
F 3 "~" H 2550 2800 50  0001 C CNN
	1    2550 2800
	1    0    0    -1  
$EndComp
$Comp
L Device:CP1 C1
U 1 1 5E150F85
P 1850 2800
F 0 "C1" H 1850 2900 50  0000 L CNN
F 1 "4.7u" H 1850 2700 50  0000 L CNN
F 2 "" H 1850 2800 50  0001 C CNN
F 3 "~" H 1850 2800 50  0001 C CNN
	1    1850 2800
	1    0    0    -1  
$EndComp
Wire Wire Line
	2200 2550 2200 2600
Wire Wire Line
	1850 2650 1850 2600
Wire Wire Line
	1850 2600 2200 2600
Connection ~ 2200 2600
Wire Wire Line
	2200 2600 2200 2650
Wire Wire Line
	2200 2600 2550 2600
Wire Wire Line
	2550 2600 2550 2650
Wire Wire Line
	2550 2950 2550 3000
Wire Wire Line
	2550 3000 2200 3000
Wire Wire Line
	1850 3000 1850 2950
Wire Wire Line
	2200 2950 2200 3000
Connection ~ 2200 3000
Wire Wire Line
	2200 3000 1850 3000
Wire Wire Line
	2200 3050 2200 3000
Text GLabel 6400 4300 2    50   Input ~ 0
RXD
Text GLabel 6400 4400 2    50   Input ~ 0
TXD
$Comp
L Connector:Conn_01x16_Female J1
U 1 1 5E155BD7
P 9650 1900
F 0 "J1" H 9678 1876 50  0000 L CNN
F 1 "Display" H 9678 1785 50  0000 L CNN
F 2 "" H 9650 1900 50  0001 C CNN
F 3 "~" H 9650 1900 50  0001 C CNN
	1    9650 1900
	1    0    0    -1  
$EndComp
$Comp
L power:+5V #PWR?
U 1 1 5E1588A6
P 9450 1200
F 0 "#PWR?" H 9450 1050 50  0001 C CNN
F 1 "+5V" H 9465 1373 50  0000 C CNN
F 2 "" H 9450 1200 50  0001 C CNN
F 3 "" H 9450 1200 50  0001 C CNN
	1    9450 1200
	1    0    0    -1  
$EndComp
$Comp
L power:GND #PWR?
U 1 1 5E158EE0
P 9450 1300
F 0 "#PWR?" H 9450 1050 50  0001 C CNN
F 1 "GND" V 9455 1172 50  0000 R CNN
F 2 "" H 9450 1300 50  0001 C CNN
F 3 "" H 9450 1300 50  0001 C CNN
	1    9450 1300
	0    1    1    0   
$EndComp
Text GLabel 9450 1500 0    50   Input ~ 0
RS
Text GLabel 9450 1700 0    50   Input ~ 0
EN
Text GLabel 9450 1800 0    50   Input ~ 0
D0
Text GLabel 9450 1900 0    50   Input ~ 0
D1
Text GLabel 9450 2000 0    50   Input ~ 0
D2
Text GLabel 9450 2100 0    50   Input ~ 0
D3
Text GLabel 9450 2200 0    50   Input ~ 0
D4
Text GLabel 9450 2300 0    50   Input ~ 0
D5
Text GLabel 9450 2400 0    50   Input ~ 0
D6
Text GLabel 9450 2500 0    50   Input ~ 0
D7
Text GLabel 6400 2900 2    50   Input ~ 0
D4
Text GLabel 6400 3000 2    50   Input ~ 0
D5
Text GLabel 6400 3100 2    50   Input ~ 0
D6
Text GLabel 6400 3200 2    50   Input ~ 0
D7
$Comp
L Switch:SW_Push SW1
U 1 1 5E15DF46
P 2100 1850
F 0 "SW1" H 2100 2135 50  0000 C CNN
F 1 "RESET" H 2100 2044 50  0000 C CNN
F 2 "" H 2100 2050 50  0001 C CNN
F 3 "~" H 2100 2050 50  0001 C CNN
	1    2100 1850
	1    0    0    -1  
$EndComp
$Comp
L power:GND #PWR?
U 1 1 5E15FEC2
P 1850 1900
F 0 "#PWR?" H 1850 1650 50  0001 C CNN
F 1 "GND" H 1855 1727 50  0000 C CNN
F 2 "" H 1850 1900 50  0001 C CNN
F 3 "" H 1850 1900 50  0001 C CNN
	1    1850 1900
	1    0    0    -1  
$EndComp
$Comp
L power:+5V #PWR?
U 1 1 5E160F09
P 2350 1450
F 0 "#PWR?" H 2350 1300 50  0001 C CNN
F 1 "+5V" H 2365 1623 50  0000 C CNN
F 2 "" H 2350 1450 50  0001 C CNN
F 3 "" H 2350 1450 50  0001 C CNN
	1    2350 1450
	1    0    0    -1  
$EndComp
$Comp
L Device:R R1
U 1 1 5E1619CB
P 2350 1650
F 0 "R1" H 2420 1696 50  0000 L CNN
F 1 "10k" V 2350 1600 50  0000 L CNN
F 2 "" V 2280 1650 50  0001 C CNN
F 3 "~" H 2350 1650 50  0001 C CNN
	1    2350 1650
	1    0    0    -1  
$EndComp
Wire Wire Line
	1900 1850 1850 1850
Wire Wire Line
	1850 1850 1850 1900
Wire Wire Line
	2350 1500 2350 1450
Wire Wire Line
	2300 1850 2350 1850
Wire Wire Line
	2350 1850 2350 1800
Text GLabel 2450 1850 2    50   Input ~ 0
RESET
Wire Wire Line
	2450 1850 2350 1850
Connection ~ 2350 1850
$Comp
L power:GND #PWR?
U 1 1 5E1668A6
P 1800 3850
F 0 "#PWR?" H 1800 3600 50  0001 C CNN
F 1 "GND" H 1805 3677 50  0000 C CNN
F 2 "" H 1800 3850 50  0001 C CNN
F 3 "" H 1800 3850 50  0001 C CNN
	1    1800 3850
	1    0    0    -1  
$EndComp
$Comp
L Device:R R2
U 1 1 5E16AF3F
P 2000 3800
F 0 "R2" V 1900 3800 50  0000 C CNN
F 1 "330R" V 2000 3800 50  0000 C CNN
F 2 "" V 1930 3800 50  0001 C CNN
F 3 "~" H 2000 3800 50  0001 C CNN
	1    2000 3800
	0    1    1    0   
$EndComp
Wire Wire Line
	1850 3800 1800 3800
Wire Wire Line
	1800 3800 1800 3850
$Comp
L Device:LED D1
U 1 1 5E16EF2F
P 2300 3800
F 0 "D1" H 2293 4016 50  0000 C CNN
F 1 "LED" H 2293 3925 50  0000 C CNN
F 2 "" H 2300 3800 50  0001 C CNN
F 3 "~" H 2300 3800 50  0001 C CNN
	1    2300 3800
	1    0    0    -1  
$EndComp
$Comp
L power:+5V #PWR?
U 1 1 5E16FD84
P 2500 3750
F 0 "#PWR?" H 2500 3600 50  0001 C CNN
F 1 "+5V" H 2515 3923 50  0000 C CNN
F 2 "" H 2500 3750 50  0001 C CNN
F 3 "" H 2500 3750 50  0001 C CNN
	1    2500 3750
	1    0    0    -1  
$EndComp
Wire Wire Line
	2450 3800 2500 3800
Wire Wire Line
	2500 3800 2500 3750
$Comp
L Connector:Conn_01x06_Female J3
U 1 1 5E1713A4
P 2600 5850
F 0 "J3" H 2628 5826 50  0000 L CNN
F 1 "FTDI232" H 2628 5735 50  0000 L CNN
F 2 "" H 2600 5850 50  0001 C CNN
F 3 "~" H 2600 5850 50  0001 C CNN
	1    2600 5850
	1    0    0    -1  
$EndComp
Text GLabel 2400 5650 0    50   Input ~ 0
DTR
Text GLabel 2400 5750 0    50   Input ~ 0
RX
Text GLabel 2400 5850 0    50   Input ~ 0
TX
Text GLabel 2400 6050 0    50   Input ~ 0
CTS
$Comp
L power:GND #PWR?
U 1 1 5E174E05
P 2350 6200
F 0 "#PWR?" H 2350 5950 50  0001 C CNN
F 1 "GND" H 2355 6027 50  0000 C CNN
F 2 "" H 2350 6200 50  0001 C CNN
F 3 "" H 2350 6200 50  0001 C CNN
	1    2350 6200
	1    0    0    -1  
$EndComp
Wire Wire Line
	2350 6200 2350 6150
Wire Wire Line
	2350 6150 2400 6150
$Comp
L Device:Polyfuse F1
U 1 1 5E17646C
P 2050 5950
F 0 "F1" V 1950 5950 50  0000 C CNN
F 1 "500mA" V 2150 5950 50  0000 C CNN
F 2 "" H 2100 5750 50  0001 L CNN
F 3 "~" H 2050 5950 50  0001 C CNN
	1    2050 5950
	0    1    1    0   
$EndComp
Wire Wire Line
	2200 5950 2400 5950
$Comp
L power:+5V #PWR?
U 1 1 5E17820F
P 1850 5900
F 0 "#PWR?" H 1850 5750 50  0001 C CNN
F 1 "+5V" H 1865 6073 50  0000 C CNN
F 2 "" H 1850 5900 50  0001 C CNN
F 3 "" H 1850 5900 50  0001 C CNN
	1    1850 5900
	1    0    0    -1  
$EndComp
Wire Wire Line
	1900 5950 1850 5950
Wire Wire Line
	1850 5950 1850 5900
$Comp
L power:+5V #PWR?
U 1 1 5E18F953
P 5900 1150
F 0 "#PWR?" H 5900 1000 50  0001 C CNN
F 1 "+5V" H 5915 1323 50  0000 C CNN
F 2 "" H 5900 1150 50  0001 C CNN
F 3 "" H 5900 1150 50  0001 C CNN
	1    5900 1150
	1    0    0    -1  
$EndComp
Wire Wire Line
	5900 1150 5900 1200
Wire Wire Line
	5800 1300 5800 1200
Wire Wire Line
	5800 1200 5900 1200
Connection ~ 5900 1200
Wire Wire Line
	5900 1200 5900 1300
Text GLabel 6400 2600 2    50   Input ~ 0
RS
Text GLabel 6400 2800 2    50   Input ~ 0
EN
$Comp
L power:GND #PWR?
U 1 1 5E19E824
P 9450 1600
F 0 "#PWR?" H 9450 1350 50  0001 C CNN
F 1 "GND" V 9455 1472 50  0000 R CNN
F 2 "" H 9450 1600 50  0001 C CNN
F 3 "" H 9450 1600 50  0001 C CNN
	1    9450 1600
	0    1    1    0   
$EndComp
$Comp
L power:GND #PWR?
U 1 1 5E19F476
P 9450 2700
F 0 "#PWR?" H 9450 2450 50  0001 C CNN
F 1 "GND" H 9455 2527 50  0000 C CNN
F 2 "" H 9450 2700 50  0001 C CNN
F 3 "" H 9450 2700 50  0001 C CNN
	1    9450 2700
	1    0    0    -1  
$EndComp
$Comp
L Device:R R3
U 1 1 5E19FF55
P 9150 2600
F 0 "R3" V 9050 2600 50  0000 C CNN
F 1 "330R" V 9150 2600 50  0000 C CNN
F 2 "" V 9080 2600 50  0001 C CNN
F 3 "~" H 9150 2600 50  0001 C CNN
	1    9150 2600
	0    1    1    0   
$EndComp
Wire Wire Line
	9300 2600 9450 2600
$Comp
L power:+5V #PWR?
U 1 1 5E1A281B
P 8950 2550
F 0 "#PWR?" H 8950 2400 50  0001 C CNN
F 1 "+5V" H 8965 2723 50  0000 C CNN
F 2 "" H 8950 2550 50  0001 C CNN
F 3 "" H 8950 2550 50  0001 C CNN
	1    8950 2550
	1    0    0    -1  
$EndComp
Wire Wire Line
	9000 2600 8950 2600
Wire Wire Line
	8950 2600 8950 2550
$Comp
L Device:R_POT RV1
U 1 1 5E1A92A4
P 8950 1400
F 0 "RV1" H 8800 1400 50  0000 C CNN
F 1 "5k" V 8950 1450 50  0000 C CNN
F 2 "" H 8950 1400 50  0001 C CNN
F 3 "~" H 8950 1400 50  0001 C CNN
	1    8950 1400
	1    0    0    -1  
$EndComp
Wire Wire Line
	9100 1400 9450 1400
$Comp
L power:+5V #PWR?
U 1 1 5E1B0699
P 8950 1250
F 0 "#PWR?" H 8950 1100 50  0001 C CNN
F 1 "+5V" H 8965 1423 50  0000 C CNN
F 2 "" H 8950 1250 50  0001 C CNN
F 3 "" H 8950 1250 50  0001 C CNN
	1    8950 1250
	1    0    0    -1  
$EndComp
$Comp
L power:GND #PWR?
U 1 1 5E1B0FBF
P 8950 1550
F 0 "#PWR?" H 8950 1300 50  0001 C CNN
F 1 "GND" H 8955 1377 50  0000 C CNN
F 2 "" H 8950 1550 50  0001 C CNN
F 3 "" H 8950 1550 50  0001 C CNN
	1    8950 1550
	1    0    0    -1  
$EndComp
NoConn ~ 6400 4900
NoConn ~ 6400 5000
NoConn ~ 6400 4800
NoConn ~ 6400 4700
NoConn ~ 6400 4600
NoConn ~ 6400 4500
NoConn ~ 6400 4000
NoConn ~ 6400 4100
NoConn ~ 6400 3900
NoConn ~ 6400 3700
NoConn ~ 6400 3800
NoConn ~ 6400 3600
NoConn ~ 6400 3500
NoConn ~ 6400 3400
NoConn ~ 6400 2500
NoConn ~ 6400 2700
NoConn ~ 6400 2300
NoConn ~ 6400 2200
NoConn ~ 6400 2100
NoConn ~ 6400 2000
NoConn ~ 6400 1900
NoConn ~ 6400 1800
NoConn ~ 6400 1600
NoConn ~ 6400 1700
Wire Notes Line
	1400 1100 2900 1100
Wire Notes Line
	1400 4300 2900 4300
Wire Notes Line
	2900 1100 2900 4300
Wire Notes Line
	1400 1100 1400 4300
Text Notes 1450 4250 0    50   ~ 0
Addittional Circuitry
Wire Notes Line
	10000 3000 8500 3000
Wire Notes Line
	8500 3000 8500 750 
Wire Notes Line
	8500 750  10000 750 
Wire Notes Line
	10000 750  10000 3000
Text Notes 8550 2950 0    50   ~ 0
Display Connector\n
Wire Notes Line
	9700 5400 9700 3800
Wire Notes Line
	9700 3800 8450 3800
Wire Notes Line
	8450 3800 8450 5400
Wire Notes Line
	8450 5400 9700 5400
Text Notes 8500 5350 0    50   ~ 0
AVR ISP Connector
Wire Notes Line
	3000 6500 1650 6500
Wire Notes Line
	1650 6500 1650 5400
Wire Notes Line
	1650 5400 3000 5400
Wire Notes Line
	3000 5400 3000 6500
Text Notes 1700 5500 0    50   ~ 0
FTDI 232 Connector
Wire Notes Line
	4250 5600 4250 850 
Wire Notes Line
	4250 850  6750 850 
Wire Notes Line
	6750 850  6750 5600
Wire Notes Line
	4250 5600 6750 5600
Text Notes 4300 5550 0    50   ~ 0
MCU
$EndSCHEMATC
